Cálculo de Prima de Seguro de Producción de Aguacate usando GLM
…
## Warning: Expected 2 pieces. Additional pieces discarded in 7 rows [113, 114, 115, 116,
## 117, 118, 119].

descripcion

## # A tibble: 23 × 9
##    Variable       Observaciones   Media Mediana Varianza  Minimo Maximo Curtosis
##    <chr>                  <int>   <dbl>   <dbl>    <dbl>   <dbl>  <dbl>    <dbl>
##  1 Anio                   12060  2.01e3    2014  3.27e+1 2.00e+3 2.02e3     1.85
##  2 Idestado               12060  1.74e1      16  3.86e+1 1   e+0 3.2 e1     3.41
##  3 Idddr                  12060  9.17e1      91  1.60e+3 1   e+0 1.9 e2     3.42
##  4 Idcader                12060  2.75e0       2  3.06e+0 1   e+0 1   e1     4.55
##  5 Idmunicipio            12060  1.05e2      59  1.70e+4 1   e+0 5.66e2     6.21
##  6 Idciclo                12060  3   e0       3  0       3   e+0 3   e0   NaN   
##  7 Idmodalidad            12060  1.51e0       2  2.50e-1 1   e+0 2   e0     1.00
##  8 Idunidadmedida         12060  2.00e5  200201  0       2.00e+5 2.00e5   NaN   
##  9 Idcultivo              12060  5.06e6 5060000  0       5.06e+6 5.06e6   NaN   
## 10 Sembrada               12060  2.81e2      18  1.46e+6 6   e-2 2.10e4    86.3 
## # ℹ 13 more rows
## # ℹ 1 more variable: siembra <dbl>
…
# Creamos tabla de frecuencia
tabla_frec_syc <- df_aguacate %>%
  filter(perdida_siembra_cosecha != 0) %>%
  dplyr::select(perdida_siembra_cosecha) %>%
  dplyr::mutate(intervalo_perd_syc = cut_width(perdida_siembra_cosecha,
                                   width = ancho_intervalo)) %>%
  group_by(intervalo_perd_syc) %>%
  summarize(frec_perdida = n()) %>%
  complete(intervalo_perd_syc, fill = list(frec = 0))

tabla_frec_syc

## # A tibble: 51 × 2
##    intervalo_perd_syc frec_perdida
##    <fct>                     <int>
##  1 [-29.3,29.3]               3920
##  2 (29.3,87.9]                 864
##  3 (87.9,146]                  292
##  4 (146,205]                   159
##  5 (205,264]                    95
##  6 (264,322]                    68
##  7 (322,381]                    37
##  8 (381,440]                    28
##  9 (440,498]                    22
## 10 (498,557]                    13
## # ℹ 41 more rows
…
# Creamos primero 
df_aguacate <- df_aguacate %>%
  dplyr::mutate(df_aguacate, indice_perdida_cys = perdida_siembra_cosecha/mean(Cosechada))

# Indice vs Absoluto
options(scipen = 999) # evitar notación cientifica
df_aguacate %>%
  dplyr::select(c(perdida_siembra_cosecha, indice_perdida_cys)) %>%
  dplyr::mutate(indice_perdida_cys = round(indice_perdida_cys, 4))

## # A tibble: 12,060 × 2
##    perdida_siembra_cosecha indice_perdida_cys
##                      <dbl>              <dbl>
##  1                    25.4             0.0995
##  2                     0               0     
##  3                    28               0.110 
##  4                     0               0     
##  5                     0               0     
##  6                     0               0     
##  7                    44               0.173 
##  8                     2.5             0.0098
##  9                     2.5             0.0098
## 10                     2               0.0079
## # ℹ 12,050 more rows
…
# Unir las columnas de data_aguacate con indice_criminalidad
indice_criminalidad <- indice_criminalidad %>%
  left_join(data_aguacate %>%
  dplyr::select(estado, año, perdida_siembra_cosecha, Precio, Valorproduccion, Volumenproduccion, indice_perdida_cys), by = c("estado", "año"))

# Cambio de variable categorica para los estados
library(fastDummies)

## Warning: package 'fastDummies' was built under R version 4.3.3

dummy_cols(indice_criminalidad, select_columns = "estado")

## # A tibble: 346 × 42
##      año estado           muertes_tot poblacion_interpolada indice_crim
##    <dbl> <chr>                  <dbl>                 <dbl>       <dbl>
##  1  2004 Chiapas                    3              4218946.     0.0711 
##  2  2004 Chihuahua                 51              3203737.     1.59   
##  3  2004 Ciudad de Mexico           1              8697781.     0.0115 
##  4  2004 Guerrero                   8              3108091.     0.257  
##  5  2004 Mexico                     1             13825333.     0.00723
##  6  2004 Nuevo Leon                 1              4126262.     0.0242 
##  7  2004 Quintana Roo               5              1083240.     0.462  
##  8  2004 Sinaloa                   55              2594122.     2.12   
##  9  2004 Sonora                     4              2359283.     0.170  
## 10  2004 Tamaulipas                88              2970035.     2.96   
## # ℹ 336 more rows
## # ℹ 37 more variables: perdida_siembra_cosecha <dbl>, Precio <dbl>,
## #   Valorproduccion <dbl>, Volumenproduccion <dbl>, indice_perdida_cys <dbl>,
## #   estado_Aguascalientes <int>, `estado_Baja California` <int>,
## #   `estado_Baja California Sur` <int>, estado_Chiapas <int>,
## #   estado_Chihuahua <int>, `estado_Ciudad de Mexico` <int>,
## #   estado_Coahuila <int>, estado_Colima <int>, estado_Durango <int>, …
…
